{
    "KPlugin": {
        "BugReportUrl": "https://bugs.kde.org/enter_bug.cgi?product=systemsettings&component=kcm_touchpad",
        "Description": "Touchpad settings",
        "Description[ar]": "إعدادات لوحة اللمس",
        "Description[az]": "Toxunma paneli ayarları",
        "Description[be]": "Налады сэнсарнай панэлі",
        "Description[bg]": "Настройки на тъчпада",
        "Description[ca@valencia]": "Configuració del ratolí tàctil",
        "Description[ca]": "Configuració del ratolí tàctil",
        "Description[cs]": "Nastavení touchpadu",
        "Description[da]": "Touchpad-indstillinger",
        "Description[de]": "Touchpad-Einstellungen",
        "Description[en_GB]": "Touchpad settings",
        "Description[es]": "Preferencias del panel táctil",
        "Description[eu]": "Ukimen-saguaren ezarpenak",
        "Description[fi]": "Kosketuslevyn asetukset",
        "Description[fr]": "Configuration du pavé tactile",
        "Description[hu]": "Az érintőtábla beállításai",
        "Description[ia]": "Preferentias de Touchpad (pannello tactile)",
        "Description[id]": "Pengaturan touchpad",
        "Description[is]": "Stillingar snertiplatta",
        "Description[it]": "Impostazioni del touchpad",
        "Description[ja]": "タッチパッドの設定",
        "Description[ka]": "თაჩპედის მორგება",
        "Description[ko]": "터치패드 설정",
        "Description[lt]": "Jutiklinio kilimėlio nuostatos",
        "Description[nl]": "Instellingen van touchpad",
        "Description[nn]": "Innstillingar for styreplate",
        "Description[pa]": "ਟੱਚਪੈਡ ਸੈਟਿੰਗਾਂ",
        "Description[pl]": "Ustawienia gładzika",
        "Description[pt]": "Configuração do rato por toque",
        "Description[pt_BR]": "Configurações do touchpad",
        "Description[ro]": "Configurări zonă tactilă",
        "Description[ru]": "Настройка сенсорной панели",
        "Description[sk]": "Nastavenia touchpadu",
        "Description[sl]": "Nastavitve sledilne ploščice",
        "Description[sv]": "Inställningar av tryckplatta",
        "Description[ta]": "தொடுபலகை அமைப்புகள்",
        "Description[tr]": "Dokunmatik yüzey ayarları",
        "Description[uk]": "Параметри сенсорної панелі",
        "Description[vi]": "Thiết lập bàn cảm ứng",
        "Description[x-test]": "xxTouchpad settingsxx",
        "Description[zh_CN]": "触摸板设置",
        "Icon": "preferences-desktop-touchpad",
        "Name": "Touchpad",
        "Name[ar]": "لوحة اللمس",
        "Name[az]": "Toxunma Paneli",
        "Name[be]": "Сэнсарная панэль",
        "Name[bg]": "Тъчпад",
        "Name[ca@valencia]": "Ratolí tàctil",
        "Name[ca]": "Ratolí tàctil",
        "Name[cs]": "Touchpad",
        "Name[da]": "Touchpad",
        "Name[de]": "Touchpad",
        "Name[el]": "Επιφάνεια αφής",
        "Name[en_GB]": "Touchpad",
        "Name[es]": "Panel táctil",
        "Name[et]": "Puutepadi",
        "Name[eu]": "Ukimen-sagua",
        "Name[fi]": "Kosketuslevy",
        "Name[fr]": "Pavé tactile",
        "Name[gl]": "Área táctil",
        "Name[he]": "לוח מגע",
        "Name[hu]": "Érintőtábla",
        "Name[ia]": "Touchpad",
        "Name[id]": "Touchpad",
        "Name[is]": "Snertiplatti",
        "Name[it]": "Touchpad",
        "Name[ja]": "タッチパッド",
        "Name[ka]": "თაჩპედი",
        "Name[ko]": "터치패드",
        "Name[lt]": "Jutiklinis kilimėlis",
        "Name[nl]": "Touchpad",
        "Name[nn]": "Styre­plate",
        "Name[pa]": "ਟੱਚਪੈਡ",
        "Name[pl]": "Gładzik",
        "Name[pt]": "Rato por Toque",
        "Name[pt_BR]": "Touchpad",
        "Name[ro]": "Zonă tactilă",
        "Name[ru]": "Сенсорная панель",
        "Name[sk]": "Touchpad",
        "Name[sl]": "Sledilna ploščica",
        "Name[sr@ijekavian]": "Додирник",
        "Name[sr@ijekavianlatin]": "Dodirnik",
        "Name[sr@latin]": "Dodirnik",
        "Name[sr]": "Додирник",
        "Name[sv]": "Tryckplatta",
        "Name[ta]": "தொடுபலகை",
        "Name[tg]": "Лавҳаи ламсӣ",
        "Name[tr]": "Dokunmatik Yüzey",
        "Name[uk]": "Сенсорна панель",
        "Name[vi]": "Bàn cảm ứng",
        "Name[x-test]": "xxTouchpadxx",
        "Name[zh_CN]": "触摸板",
        "Name[zh_TW]": "觸控板"
    },
    "OnlyShowIn": "KDE;",
    "X-KDE-Init-Phase": "1",
    "X-KDE-Init-Symbol": "touchpad",
    "X-KDE-Keywords": "touchpad,trackpad,synaptics,alps,elantech,elan,cirque,libinput,hardware,laptop,touch devices,click,left click,right click,middle click,click emulation,tap,tap to click,tap-to-click,fingers,two fingers tap,three fingers tap,four fingers tap,swipe,gestures,natural scrolling,invert scroll,inverted scrolling,reverse scroll,reversed scrolling,acceleration,palm rejection,left-handed mode,left handed mode,right-handed mode,right handed mode,disable while typing",
    "X-KDE-Keywords[az]": "toxunma paneli,sensor panel,synaptics,elantech,elan,sirk,daxiletmə kitabxanası,avadanlıq,dizüstü komputer,sensor qurğuları,klik,sağ klik,sol klik,orta klik,toxunma,toxunaraq klik,barmaqlar,iki barmaqla toxunuş,üç barmaqla toxunuş,dörd barmaqla toxunuş,jüestlər,təbii sürüşmə,tərsinə sürüşdürmə,əksinə sürüşdürmə,sürətləndirici,palm reaksiyası,sol əl rejimi,sağ əl rejimi,yazarkən söndürmək",
    "X-KDE-Keywords[ca]": "ratolí tàctil,touchpad,synaptics,alps,elantech,elan,cirque,libinput,maquinari,portàtil,dispositius tàctils,clic,clic esquerre,clic dret,clic del mig,emulació de clic,toc,toc per clic,dits,toc de dos dits,toc de tres dits,toc de quatre dits,passar el dit,lliscar,gestos,desplaçament natural,inverteix el desplaçament,desplaçament invertit,acceleració,anul·lació de palmell,mode esquerrà,mode dretà,desactiva en teclejar",
    "X-KDE-Keywords[fr]": "pavé tactile, synaptics, alps, elantech, elan, cirque, libinput, matériel, ordinateur portable, périphériques tactiles, clic, clic droit, clic gauche, clic central, émulation de clic, tapotage, tapoter pour cliquer, doigts, tapotage à deux doigts, tapotage à trois doigts, tapotage à quatre doigts, défiler, gestes, défilement natural, défilement inversé, accélération, rejet de paume, mode gaucher, mode pour gaucher, mode pour droitier, mode droitier, désactivé lors de la saisie",
    "X-KDE-Keywords[hu]": "érintőtábla,synaptics,alps,elantech,elan,cirque,libinput,hardver,laptop,érintő eszközök,kattintás,bal kattintás,jobb kattintás,középső kattintés,kattintás emuláció,koppintás,koppintással kattintás,kopp-klikk,ujjak,két ujjas koppintás,három ujjas koppintás,négy ujjas koppintás,húzás,kézmozdulaotk,természetes görgetés,inverz görgetés,fordított görgetés,gyorsítás,tenyér elutasítás,balkezes mód,bal kezes mód, jobbkezes mód,jobb kezes mód,kikapcsolás gépeléskor",
    "X-KDE-Keywords[ko]": "터치패드,하드웨어,노트북,랩톱,터치 장치,클릭,왼쪽 클릭,오른쪽 클릭,가운데 클릭,탭,탭하여 클릭,손가락,두 손가락 탭,세 손가락 탭,네 손가락 탭,스와이프,제스처,자연 스크롤,스크롤 반전,가속,손바닥 감지,왼손잡이 모드,오른손잡이 모드,입력할 때 비활성화,반전 스크롤,역방향 스크롤",
    "X-KDE-Keywords[nl]": "touchpad,aanraakpad,synaptics,alps,elantech,elan,cirque,libinput,hardware,laptop,aanraakapparaten,klik,linker klik,rechter klik,middenklik,klikemulatie,tap,tap om te klikken,vingers,tap met twee vingers,tap met drie vingers,tap met vier vingers,swipe,gebaren,natuurlijk schuiven,omgekeerd schuiven,versnelling,afwijzen van palm,modus linkshandig,modus rechtshandig,uitschakelen tijdens typen",
    "X-KDE-Keywords[sl]": "sledilna ploščica,synaptics,alps,elantech,elan,cirque,libinput,strojna oprema,prenosnik,naprave z dotikom, klik,levi klik,desni klik,srednji klik,posnemanje klika,tapni,tapni za klik,tap-za-klik,prsti,dvo prstni tap,trije prsti,štiriprstni tap,poteg,kretnje,naravno pomikanje,obrnjeno pomikanje,pospešek,zavrnitev dlani,način leve roke, način za levo roko, način desne roke,način za desno roko,onemogoči med tipkanjem",
    "X-KDE-Keywords[sv]": "touchpad,synaptics,alps,elantech,elan,cirque,libinput,maskinvara,bärbar dator,pekenheter,klick,vänsterklick,högerklick,mittenklick,klickemulering,beröring,berör för att klicka,fingrar,tvåfingersberöring,trefingersberöring,fyrfingersberöring,svep,gester,naturlig rullning,invertera rullning,inverterad rullning,omvänd rullning,acceleration,handflateavvisning,vänsterhandsläge,högerhandsläge,inaktivera vid skrivning",
    "X-KDE-Keywords[uk]": "touchpad,synaptics,alps,elantech,elan,cirque,libinput,hardware,laptop,touch devices,click,left click,right click,middle click,click emulation,tap,tap to click,tap-to-click,fingers,two fingers tap,three fingers tap,four fingers tap,swipe,gestures,natural scrolling,invert scroll,inverted scrolling,reverse scroll,reversed scrolling,acceleration,palm rejection,left-handed mode,left handed mode,right-handed mode,right handed mode,disable while typing,сенсорна панель,синаптикс,алпс,елантех,елан,сірк,лібінпут,обладнання,апаратне забезпечення,ноутбук,лептоп,сенсорні пристрої,клацання,клацання лівою,клацання правою,клацання середньою,емуляція клацання,імітація клацання,торкання,торкання для клацання,пальці,двопальцеве торкання,трипальцеве торкання,чотирипальцеве торкання,проведення,змах,жести,природне гортання,інвертоване гортання,обернене гортання,гортати обернено,прискорення,долоня,режим шульги,режим лівші,режим правші,вимикання під час введення,вимикання під час друку",
    "X-KDE-Keywords[x-test]": "xxtouchpadxx,xxsynapticsxx,xxalpsxx,xxelantechxx,xxelanxx,xxcirquexx,xxlibinputxx,xxhardwarexx,xxlaptopxx,xxtouch devicesxx,xxclickxx,xxleft clickxx,xxright clickxx,xxmiddle clickxx,xxclick emulationxx,xxtapxx,xxtap to clickxx,xxtap-to-clickxx,xxfingersxx,xxtwo fingers tapxx,xxthree fingers tapxx,xxfour fingers tapxx,xxswipexx,xxgesturesxx,xxnatural scrollingxx,xxinvert scrollxx,xxinverted scrollingxx,xxreverse scrollxx,xxreversed scrollingxx,xxaccelerationxx,xxpalm rejectionxx,xxleft-handed modexx,xxleft handed modexx,xxright-handed modexx,xxright handed modexx,xxdisable while typingxx",
    "X-KDE-System-Settings-Parent-Category": "input-devices"
}
