{
    "KPlugin": {
        "BugReportUrl": "https://bugs.kde.org/enter_bug.cgi?product=systemsettings&component=kcm_solid-actions",
        "Description": "Manage actions available to the user when connecting new devices",
        "Description[ar]": "أدِر الإجراءات المتوفّرة للمستخدم عند وصل أجهزة جديدة",
        "Description[az]": "Yeni cihazları qoşarkən istifadəçi üçün mövcud olan işləri idarə etmək",
        "Description[be]": "Кіраванне дзеяннямі пры падлучэнні новых прылад",
        "Description[bg]": "Управление на действията, достъпни за потребителя при свързване нови устройства",
        "Description[ca@valencia]": "Gestiona les accions disponibles per a l'usuari en connectar dispositius nous",
        "Description[ca]": "Gestiona les accions disponibles per a l'usuari en connectar dispositius nous",
        "Description[cs]": "Spravovat činnosti dostupné pro uživatele při připojení nových zařízení",
        "Description[da]": "Håndtér de handlinger som er tilgængelige for brugeren når nye enheder tilsluttes",
        "Description[de]": "Einrichtung der Aktionen, die für den Anwender verfügbar sein sollen, wenn neue Geräte an den Rechner angeschlossen werden.",
        "Description[en_GB]": "Manage actions available to the user when connecting new devices",
        "Description[es]": "Gestionar las acciones disponibles para el usuario cuando conecta nuevos dispositivos",
        "Description[eu]": "Kudeatu gailu berriak konektatzean erabiltzaileak erabilgarri dituen ekintzak",
        "Description[fi]": "Hallitse toimintoja, jotka ovat käyttäjän valittavissa, kun uusia laitteita kytketään",
        "Description[fr]": "Gérer les actions mises à disposition de l'utilisateur lors de la connexion de nouveaux périphériques.",
        "Description[hu]": "Új eszköz csatlakoztatásakor a felhasználónak elérhető műveletek kezelése",
        "Description[ia]": "Gerer actiones disponibile al usator quando il connecte nove dispositivos al computator",
        "Description[id]": "Kelola aksi yang tersedia ke pengguna ketika pengkoneksian peranti baru",
        "Description[is]": "Sýsla með aðgerðir sem verða í boði fyrir notanda þegar ný tæki eru tengd við tölvuna",
        "Description[it]": "Gestisce le azioni disponibili all'utente quando vengono collegati dei nuovi dispositivi",
        "Description[ja]": "新しいデバイスが接続された時にユーザが行えるアクションを管理",
        "Description[ka]": "მართეთ ახალი მოწყობილობების მიერთებისას მომხმარებლისთვის ხელმისაწვდომი ქმედებები",
        "Description[ko]": "새 장치를 연결했을 때 표시할 동작을 관리합니다",
        "Description[lt]": "Tvarkyti veiksmus prieinamus naudotojui, kai prijungiami nauji įrenginiai",
        "Description[nl]": "Beheren van acties die beschikbaar zijn voor de gebruiker bij het aankoppelen van nieuwe apparaten",
        "Description[nn]": "Set opp handlingar som er tilgjengelege når ei ny eining vert kopla til datamaskina",
        "Description[pa]": "ਵਰਤੋਂਕਾਰ ਨੂੰ ਮਿਲਣ ਵਾਲੀਆਂ ਕਾਰਵਾਈਆਂ ਦਾ ਇੰਤਜ਼ਾਮ ਕਰੋ, ਜਦੋਂ ਨਵੇਂ ਡਿਵਾਈਸ ਕਨੈਕਟ ਕੀਤੇ ਜਾਂਦੇ ਹਨ",
        "Description[pl]": "Określ działania dostępne dla użytkownika po podłączeniu nowych urządzeń",
        "Description[pt]": "Gerir as acções disponíveis para o utilizador ao ligar novos dispositivos",
        "Description[pt_BR]": "Gerencia as ações disponíveis ao conectar novos dispositivos",
        "Description[ro]": "Gestionează acțiunile oferite utilizatorului la conectarea noilor dispozitive",
        "Description[ru]": "Настройка предлагаемых пользователю действий при подключении устройств",
        "Description[sk]": "Spravovať akcie dostupné aktuálnemu používateľovi pri pripájaní nových zariadení",
        "Description[sl]": "Upravljajte dejanja, ki so na voljo uporabniku ob priključitvi nove naprave",
        "Description[sv]": "Hantera tillgängliga åtgärder för användare när nya enheter ansluts",
        "Description[ta]": "புதிய சாதனங்களை இணைக்கும்போது பயனர் மேற்கொள்ளக்கூடிய செயல்களை நிர்வகியுங்கள்",
        "Description[tr]": "Yeni aygıtlar bağlandığında kullanıcıya sunulan eylemleri yönet",
        "Description[uk]": "Керування діями, доступними користувачеві після з’єднання пристроїв з комп’ютером",
        "Description[vi]": "Quản lí các hành động khả dụng cho người dùng khi kết nối thiết bị mới",
        "Description[x-test]": "xxManage actions available to the user when connecting new devicesxx",
        "Description[zh_CN]": "管理当新设备连接时可用的用户操作",
        "Icon": "system-run",
        "Name": "Device Actions",
        "Name[ar]": "إجراءات الجهاز",
        "Name[az]": "Cihaz üçün fəaliyyətlər",
        "Name[be]": "Дзеянні з прыладай",
        "Name[bg]": "Действия за устройства",
        "Name[bn]": "ডিভাইস অ্যাকশন",
        "Name[bs]": "Radnje uređaja",
        "Name[ca@valencia]": "Accions de dispositiu",
        "Name[ca]": "Accions de dispositiu",
        "Name[cs]": "Činnosti zařízení",
        "Name[csb]": "Dzejanié ùrządzenia",
        "Name[da]": "Enhedshandlinger",
        "Name[de]": "Geräte-Aktionen",
        "Name[el]": "Ενέργειες συσκευής",
        "Name[en_GB]": "Device Actions",
        "Name[eo]": "Aparataj agoj",
        "Name[es]": "Acciones del dispositivo",
        "Name[et]": "Seadme toimingud",
        "Name[eu]": "Gailuaren ekintzak",
        "Name[fi]": "Laitetoiminnot",
        "Name[fr]": "Actions du périphérique",
        "Name[fy]": "Apparaat aksjes",
        "Name[ga]": "Gníomhartha Gléis",
        "Name[gl]": "Accións do dispositivo",
        "Name[gu]": "ઉપકરણ ક્રિયાઓ",
        "Name[he]": "פעולות התקן",
        "Name[hi]": "औजार क्रियाएँ",
        "Name[hr]": "Akcije uređaja",
        "Name[hu]": "Eszközműveletek",
        "Name[ia]": "Actiones de dispositivos",
        "Name[id]": "Aksi Peranti",
        "Name[is]": "Aðgerðir tækis",
        "Name[it]": "Azioni del dispositivo",
        "Name[ja]": "デバイスに対するアクション",
        "Name[ka]": "მოწყობილობის ქმედებები",
        "Name[kk]": "Құрылғы әрекеттері",
        "Name[km]": "សកម្មភាព​ឧបករណ៍",
        "Name[kn]": "ಸಾಧನದ ಕ್ರಿಯೆಗಳು",
        "Name[ko]": "장치 동작",
        "Name[lt]": "Įrenginių veiksmai",
        "Name[lv]": "Ierīces darbības",
        "Name[mk]": "Дејства за уреди",
        "Name[ml]": "ഉപകരണത്തിനുള്ള പ്രവൃത്തികള്‍",
        "Name[mr]": "साधन क्रिया",
        "Name[nb]": "Enhetshandlinger",
        "Name[nds]": "Reedschap-Akschonen",
        "Name[nl]": "Apparaatacties",
        "Name[nn]": "Einings­handlingar",
        "Name[pa]": "ਡਿਵਾਈਸ ਕਾਰਵਾਈਆਂ",
        "Name[pl]": "Działania na urządzeniach",
        "Name[pt]": "Acções do Dispositivo",
        "Name[pt_BR]": "Ações dos dispositivos",
        "Name[ro]": "Acțiuni dispozitiv",
        "Name[ru]": "Действия для устройств",
        "Name[si]": "මෙවලම් ක්‍රියා",
        "Name[sk]": "Akcie zariadenia",
        "Name[sl]": "Dejanja za napravo",
        "Name[sr@ijekavian]": "Радње уређаја",
        "Name[sr@ijekavianlatin]": "Radnje uređaja",
        "Name[sr@latin]": "Radnje uređaja",
        "Name[sr]": "Радње уређаја",
        "Name[sv]": "Enhetsåtgärder",
        "Name[ta]": "சாதன செயல்கள்",
        "Name[tg]": "Амалиётҳои дастгоҳ",
        "Name[th]": "การกระทำต่าง ๆ กับอุปกรณ์",
        "Name[tr]": "Aygıt Eylemleri",
        "Name[ug]": "ئۈسكۈنە مەشغۇلاتى",
        "Name[uk]": "Дії з пристроями",
        "Name[vi]": "Hành động với thiết bị",
        "Name[wa]": "Accions di l' éndjin",
        "Name[x-test]": "xxDevice Actionsxx",
        "Name[zh_CN]": "设备操作",
        "Name[zh_TW]": "裝置動作"
    },
    "X-DocPath": "kcontrol/solid-actions/index.html",
    "X-KDE-Keywords": "Solid Devices Actions,device actions,open with,play,download,browse,transfer",
    "X-KDE-Keywords[az]": "Solid Devices Actions,device actions,open with,play,download,browse,transfer,Sərt Cihazlar,Əməllər,cihaz əməlləri,bununla açmaq, oynatmaq,endirmək,bələdçi,köçürmə",
    "X-KDE-Keywords[ca]": "accions de dispositiu del Solid,accions de dispositiu,obre amb,reprodueix,baixa,navega,transfereix",
    "X-KDE-Keywords[en_GB]": "Solid Devices Actions,device actions,open with,play,download,browse,transfer",
    "X-KDE-Keywords[es]": "acciones de dispositivos solid,acciones del dispositivo,abrir con,reproducir,descargar,navegar,explorar,transferir",
    "X-KDE-Keywords[eu]": "gailu solidoen ekintzak,gailuaren ekintzak,ireki honekin,jo,zama-jaitsi,arakatu, transferentzia",
    "X-KDE-Keywords[fi]": "Solid-laitetoiminnot,laitetoiminnot,avaa ohjelmalla,toista,lataa,selaa,siirrä",
    "X-KDE-Keywords[fr]": "Périphériques Solid, Actions, actions de périphérique, ouvrir avec, lire, télécharger, naviguer, transférer",
    "X-KDE-Keywords[hu]": "Solid eszközműveletek,eszközműveletek,megnyitás mással,lejátszás,letöltés,böngészés,átvitel",
    "X-KDE-Keywords[ia]": "Actiones de dispositivos solid,actiones de dispositivos,aperi con,reproduce,discarga, naviga,transfere",
    "X-KDE-Keywords[it]": "Azioni dispositivi Solid,azioni dei dispositivi,apri con,riproduci,scarica,sfoglia,trasferisci",
    "X-KDE-Keywords[ko]": "Solid Devices Actions,device actions,open with,play,download,browse,transfer,Solid 장치 동작,장치 동작,다음으로 열기,재생,다운로드,탐색,전송",
    "X-KDE-Keywords[nl]": "Solid-apparaatacties,apparaatacties,openen met,afspelen,downloaden,bladeren,overdragen,verplaatsen",
    "X-KDE-Keywords[nn]": "Handlingar for Solid-einingar,einingshandlingar,opna med,spel,lasta ned,bla gjennom,overføring,filoverføring",
    "X-KDE-Keywords[pl]": "Działania urządzeń stałych,działania urządzeń,otwórz w,odtwórz,pobierz,przeglądaj, prześlij",
    "X-KDE-Keywords[pt]": "Acções dos Dispositivos Solid,acções dos dispositivos,abrir com,reproduzir,transferir,navegar,obter",
    "X-KDE-Keywords[pt_BR]": "Ações dos dispositivos Solid,ações do dispositivo,abrir com,executar,tocar,baixar,navegar,transferir",
    "X-KDE-Keywords[ru]": "Solid Devices Actions,device actions,open with,play,download,browse,transfer,действия для устройств Solid,действия для устройств,скачать,загрузить,загрузка,воспроизведение,просмотр,передача",
    "X-KDE-Keywords[sk]": "Akcie solid zariadení,akcie zariadenia,otvoriť pomocou,prehrať,stiahnuť,prezerať,preniesť",
    "X-KDE-Keywords[sl]": "dejavnosti trdnih naprav,dejavnosti naprav,odpri z,predvajaj,prenesi sem,brskaj,prenesi",
    "X-KDE-Keywords[sv]": "Solid enhetsåtgärder,enhetsåtgärder,öppna med,spela,nerladdning,bläddra,överföring",
    "X-KDE-Keywords[ta]": "Solid Devices Actions,device actions,open with,play,download,browse,transfer, சாதன செயல்கள், இதனால் திற, இயக்கு, விளையாடு, உலாவு, மாற்று, நகர்த்து, நகற்று, நகல்",
    "X-KDE-Keywords[tr]": "Katı Cihaz İşlemleri,cihaz işlemleri,birlikte aç,oynat,indir,göz at,aktar",
    "X-KDE-Keywords[uk]": "Solid Devices Actions,device actions,open with,play,download,browse,transfer,дії з пристроями,відкриття,відтворення,отримання,завантаження,звантаження,навігація,передавання,передати,пересунути,перемістити",
    "X-KDE-Keywords[vi]": "Solid Devices Actions,device actions,open with,play,download,browse,transfer,hành động với thiết bị Solid,hành động với thiết bị,mở bằng,phát,tải về,duyệt,truyền",
    "X-KDE-Keywords[x-test]": "xxSolid Devices Actionsxx,xxdevice actionsxx,xxopen withxx,xxplayxx,xxdownloadxx,xxbrowsexx,xxtransferxx",
    "X-KDE-Keywords[zh_CN]": "Solid Devices Actions,device actions,open with,play,download,browse,transfer,Solid 设备操作,设备操作,打开方式,播放,下载,浏览,传输",
    "X-KDE-System-Settings-Parent-Category": "removable-storage"
}
